motor/simulation/modelsim/msim_transcript
# Reading pref.tcl
# do A2_run_msim_rtl_verilog.do
# if {[file exists rtl_work]} {
# 	vdel -lib rtl_work -all
# }
# vlib rtl_work
# vmap work rtl_work
# Model Technology ModelSim - Intel FPGA Edition vmap 2020.1 Lib Mapping Utility 2020.02 Feb 28 2020
# vmap work rtl_work 
# Copying D:/intelFPGA_lite/20.1/modelsim_ase/win32aloem/../modelsim.ini to modelsim.ini
# Modifying modelsim.ini
# 
# vlog -sv -work work +incdir+D:/2402/MTRX3700/A2 {D:/2402/MTRX3700/A2/uart_tx.sv}
# Model Technology ModelSim - Intel FPGA Edition vlog 2020.1 Compiler 2020.02 Feb 28 2020
# Start time: 23:27:50 on Oct 08,2024
# vlog -reportprogress 300 -sv -work work "+incdir+D:/2402/MTRX3700/A2" D:/2402/MTRX3700/A2/uart_tx.sv 
# -- Compiling module uart_tx
# 
# Top level modules:
# 	uart_tx
# End time: 23:27:50 on Oct 08,2024, Elapsed time: 0:00:00
# Errors: 0, Warnings: 0
# vlog -sv -work work +incdir+D:/2402/MTRX3700/A2 {D:/2402/MTRX3700/A2/uart_comm.sv}
# Model Technology ModelSim - Intel FPGA Edition vlog 2020.1 Compiler 2020.02 Feb 28 2020
# Start time: 23:27:50 on Oct 08,2024
# vlog -reportprogress 300 -sv -work work "+incdir+D:/2402/MTRX3700/A2" D:/2402/MTRX3700/A2/uart_comm.sv 
# -- Compiling module uart_comm
# 
# Top level modules:
# 	uart_comm
# End time: 23:27:50 on Oct 08,2024, Elapsed time: 0:00:00
# Errors: 0, Warnings: 0
# 
# vlog -sv -work work +incdir+D:/2402/MTRX3700/A2 {D:/2402/MTRX3700/A2/uart_comm_tb.sv}
# Model Technology ModelSim - Intel FPGA Edition vlog 2020.1 Compiler 2020.02 Feb 28 2020
# Start time: 23:27:50 on Oct 08,2024
# vlog -reportprogress 300 -sv -work work "+incdir+D:/2402/MTRX3700/A2" D:/2402/MTRX3700/A2/uart_comm_tb.sv 
# -- Compiling module uart_comm_tb
# 
# Top level modules:
# 	uart_comm_tb
# End time: 23:27:50 on Oct 08,2024, Elapsed time: 0:00:00
# Errors: 0, Warnings: 0
# 
# vsim -t 1ps -L altera_ver -L lpm_ver -L sgate_ver -L altera_mf_ver -L altera_lnsim_ver -L cycloneive_ver -L rtl_work -L work -voptargs="+acc"  uart_comm_tb
# vsim -t 1ps -L altera_ver -L lpm_ver -L sgate_ver -L altera_mf_ver -L altera_lnsim_ver -L cycloneive_ver -L rtl_work -L work -voptargs=""+acc"" uart_comm_tb 
# Start time: 23:27:50 on Oct 08,2024
# Loading sv_std.std
# Loading work.uart_comm_tb
# Loading work.uart_comm
# Loading work.uart_tx
# 
# add wave *
# view structure
# .main_pane.structure.interior.cs.body.struct
# view signals
# .main_pane.objects.interior.cs.body.tree
# run -all
# Time=0, SW=000, uart_out=1, ready=1
# Time=70, SW=000, uart_out=0, ready=0
# Time=130, SW=000, uart_out=1, ready=0
# Time=250, SW=000, uart_out=0, ready=0
# Time=310, SW=000, uart_out=1, ready=0
# Time=550, SW=000, uart_out=0, ready=0
# Time=610, SW=000, uart_out=1, ready=0
# Time=670, SW=000, uart_out=1, ready=1
# Time=710, SW=000, uart_out=0, ready=0
# Time=830, SW=000, uart_out=1, ready=0
# Time=890, SW=000, uart_out=0, ready=0
# Time=1070, SW=000, uart_out=1, ready=0
# Time=1130, SW=000, uart_out=0, ready=0
# Time=1250, SW=000, uart_out=1, ready=0
# Time=1310, SW=000, uart_out=1, ready=1
# Time=1350, SW=000, uart_out=0, ready=0
# Time=1530, SW=000, uart_out=1, ready=0
# Time=1590, SW=000, uart_out=0, ready=0
# Time=1650, SW=000, uart_out=1, ready=0
# Time=1710, SW=000, uart_out=0, ready=0
# Time=1770, SW=000, uart_out=1, ready=0
# Time=1830, SW=000, uart_out=0, ready=0
# Time=1890, SW=000, uart_out=1, ready=0
# Time=1950, SW=000, uart_out=1, ready=1
# Time=1990, SW=000, uart_out=0, ready=0
# Time=2110, SW=000, uart_out=1, ready=0
# Time=2170, SW=000, uart_out=0, ready=0
# Time=2350, SW=000, uart_out=1, ready=0
# Time=2410, SW=000, uart_out=0, ready=0
# Time=2530, SW=000, uart_out=1, ready=0
# Time=2590, SW=000, uart_out=1, ready=1
# Time=2630, SW=000, uart_out=0, ready=0
# Time=2750, SW=000, uart_out=1, ready=0
# Time=2810, SW=000, uart_out=0, ready=0
# Time=2870, SW=000, uart_out=1, ready=0
# Time=3050, SW=000, uart_out=0, ready=0
# Time=3170, SW=000, uart_out=1, ready=0
# Time=3230, SW=000, uart_out=1, ready=1
# Time=3270, SW=000, uart_out=0, ready=0
# Time=3330, SW=000, uart_out=1, ready=0
# Time=3390, SW=000, uart_out=0, ready=0
# Time=3570, SW=000, uart_out=1, ready=0
# Time=3690, SW=000, uart_out=0, ready=0
# Time=3810, SW=000, uart_out=1, ready=0
# Time=3870, SW=000, uart_out=1, ready=1
# Time=3910, SW=000, uart_out=0, ready=0
# Time=4090, SW=000, uart_out=1, ready=0
# Time=4210, SW=000, uart_out=0, ready=0
# Time=4270, SW=000, uart_out=1, ready=0
# Time=4330, SW=000, uart_out=0, ready=0
# Time=4450, SW=000, uart_out=1, ready=0
# Time=4510, SW=000, uart_out=1, ready=1
# Time=4550, SW=000, uart_out=0, ready=0
# Time=4670, SW=000, uart_out=1, ready=0
# Time=4730, SW=000, uart_out=0, ready=0
# Time=4910, SW=000, uart_out=1, ready=0
# Time=4970, SW=000, uart_out=0, ready=0
# Time=5090, SW=000, uart_out=1, ready=0
# Time=5150, SW=000, uart_out=1, ready=1
# Time=5190, SW=000, uart_out=0, ready=0
# Time=5370, SW=000, uart_out=1, ready=0
# Time=5490, SW=000, uart_out=0, ready=0
# Time=5610, SW=000, uart_out=1, ready=0
# Time=5670, SW=000, uart_out=0, ready=0
# Time=5730, SW=000, uart_out=1, ready=0
# Time=5790, SW=000, uart_out=1, ready=1
# Time=5830, SW=000, uart_out=0, ready=0
# Time=5950, SW=000, uart_out=1, ready=0
# Time=6010, SW=000, uart_out=0, ready=0
# Time=6190, SW=000, uart_out=1, ready=0
# Time=6250, SW=000, uart_out=0, ready=0
# Time=6370, SW=000, uart_out=1, ready=0
# Time=6430, SW=000, uart_out=1, ready=1
# Time=6470, SW=000, uart_out=0, ready=0
# Time=6590, SW=000, uart_out=1, ready=0
# Time=6650, SW=000, uart_out=0, ready=0
# Time=6710, SW=000, uart_out=1, ready=0
# Time=6890, SW=000, uart_out=0, ready=0
# Time=7010, SW=000, uart_out=1, ready=0
# Time=7070, SW=000, uart_out=1, ready=1
# Time=7110, SW=000, uart_out=0, ready=0
# Time=7410, SW=000, uart_out=1, ready=0
# Time=7530, SW=000, uart_out=0, ready=0
# Time=7650, SW=000, uart_out=1, ready=0
# Time=7710, SW=000, uart_out=1, ready=1
# Time=7750, SW=000, uart_out=0, ready=0
# Time=7870, SW=000, uart_out=1, ready=0
# Time=8050, SW=000, uart_out=0, ready=0
# Time=8110, SW=000, uart_out=1, ready=0
# Time=8170, SW=000, uart_out=0, ready=0
# Time=8290, SW=000, uart_out=1, ready=0
# Time=8350, SW=000, uart_out=1, ready=1
# Time=8390, SW=000, uart_out=0, ready=0
# Time=8690, SW=000, uart_out=1, ready=0
# Time=8810, SW=000, uart_out=0, ready=0
# Time=8930, SW=000, uart_out=1, ready=0
# Time=8990, SW=000, uart_out=1, ready=1
# Time=9030, SW=000, uart_out=0, ready=0
# Time=9210, SW=000, uart_out=1, ready=0
# Time=9330, SW=000, uart_out=0, ready=0
# Time=9390, SW=000, uart_out=1, ready=0
# Time=9450, SW=000, uart_out=0, ready=0
# Time=9570, SW=000, uart_out=1, ready=0
# Time=9630, SW=000, uart_out=1, ready=1
# Time=9670, SW=000, uart_out=0, ready=0
# Time=9790, SW=000, uart_out=1, ready=0
# Time=9850, SW=000, uart_out=0, ready=0
# Time=10030, SW=000, uart_out=1, ready=0
# Time=10090, SW=000, uart_out=0, ready=0
# Time=10210, SW=000, uart_out=1, ready=0
# Time=10270, SW=000, uart_out=1, ready=1
# Time=10310, SW=000, uart_out=0, ready=0
# Time=10430, SW=000, uart_out=1, ready=0
# Time=10490, SW=000, uart_out=0, ready=0
# Time=10610, SW=000, uart_out=1, ready=0
# Time=10670, SW=000, uart_out=0, ready=0
# Time=10730, SW=000, uart_out=1, ready=0
# Time=10790, SW=000, uart_out=0, ready=0
# Time=10850, SW=000, uart_out=1, ready=0
# Time=10910, SW=000, uart_out=1, ready=1
# Time=10950, SW=000, uart_out=0, ready=0
# Time=11070, SW=000, uart_out=1, ready=0
# Time=11130, SW=000, uart_out=0, ready=0
# Time=11310, SW=000, uart_out=1, ready=0
# Time=11370, SW=000, uart_out=0, ready=0
# Time=11490, SW=000, uart_out=1, ready=0
# Time=11550, SW=000, uart_out=1, ready=1
# Time=11590, SW=000, uart_out=0, ready=0
# Time=11710, SW=000, uart_out=1, ready=0
# Time=11770, SW=000, uart_out=0, ready=0
# Time=11830, SW=000, uart_out=1, ready=0
# Time=12010, SW=000, uart_out=0, ready=0
# Time=12130, SW=000, uart_out=1, ready=0
# Time=12190, SW=000, uart_out=1, ready=1
# Time=12230, SW=000, uart_out=0, ready=0
# Time=12530, SW=000, uart_out=1, ready=0
# Time=12650, SW=000, uart_out=0, ready=0
# Time=12770, SW=000, uart_out=1, ready=0
# Time=12830, SW=000, uart_out=1, ready=1
# Time=12870, SW=000, uart_out=0, ready=0
# Time=12990, SW=000, uart_out=1, ready=0
# Time=13170, SW=000, uart_out=0, ready=0
# Time=13230, SW=000, uart_out=1, ready=0
# Time=13290, SW=000, uart_out=0, ready=0
# Time=13410, SW=000, uart_out=1, ready=0
# Time=13470, SW=000, uart_out=1, ready=1
# Time=13510, SW=000, uart_out=0, ready=0
# Time=13810, SW=000, uart_out=1, ready=0
# Time=13930, SW=000, uart_out=0, ready=0
# Time=14050, SW=000, uart_out=1, ready=0
# Time=14110, SW=000, uart_out=1, ready=1
# Time=14150, SW=000, uart_out=0, ready=0
# Time=14210, SW=000, uart_out=1, ready=0
# Time=14270, SW=000, uart_out=0, ready=0
# Time=14330, SW=000, uart_out=1, ready=0
# Time=14630, SW=000, uart_out=0, ready=0
# Time=14690, SW=000, uart_out=1, ready=0
# Time=14750, SW=000, uart_out=1, ready=1
# Time=20060, SW=001, uart_out=1, ready=1
# Time=20110, SW=001, uart_out=0, ready=0
# Time=20170, SW=001, uart_out=1, ready=0
# Time=20290, SW=001, uart_out=0, ready=0
# Time=20350, SW=001, uart_out=1, ready=0
# Time=20590, SW=001, uart_out=0, ready=0
# Time=20650, SW=001, uart_out=1, ready=0
# Time=20710, SW=001, uart_out=1, ready=1
# Time=20750, SW=001, uart_out=0, ready=0
# Time=20870, SW=001, uart_out=1, ready=0
# Time=20930, SW=001, uart_out=0, ready=0
# Time=21110, SW=001, uart_out=1, ready=0
# Time=21170, SW=001, uart_out=0, ready=0
# Time=21290, SW=001, uart_out=1, ready=0
# Time=21350, SW=001, uart_out=1, ready=1
# Time=21390, SW=001, uart_out=0, ready=0
# Time=21570, SW=001, uart_out=1, ready=0
# Time=21630, SW=001, uart_out=0, ready=0
# Time=21690, SW=001, uart_out=1, ready=0
# Time=21750, SW=001, uart_out=0, ready=0
# Time=21810, SW=001, uart_out=1, ready=0
# Time=21870, SW=001, uart_out=0, ready=0
# Time=21930, SW=001, uart_out=1, ready=0
# Time=21990, SW=001, uart_out=1, ready=1
# Time=22030, SW=001, uart_out=0, ready=0
# Time=22150, SW=001, uart_out=1, ready=0
# Time=22210, SW=001, uart_out=0, ready=0
# Time=22390, SW=001, uart_out=1, ready=0
# Time=22450, SW=001, uart_out=0, ready=0
# Time=22570, SW=001, uart_out=1, ready=0
# Time=22630, SW=001, uart_out=1, ready=1
# Time=22670, SW=001, uart_out=0, ready=0
# Time=22790, SW=001, uart_out=1, ready=0
# Time=22850, SW=001, uart_out=0, ready=0
# Time=22910, SW=001, uart_out=1, ready=0
# Time=23090, SW=001, uart_out=0, ready=0
# Time=23210, SW=001, uart_out=1, ready=0
# Time=23270, SW=001, uart_out=1, ready=1
# Time=23310, SW=001, uart_out=0, ready=0
# Time=23370, SW=001, uart_out=1, ready=0
# Time=23430, SW=001, uart_out=0, ready=0
# Time=23610, SW=001, uart_out=1, ready=0
# Time=23730, SW=001, uart_out=0, ready=0
# Time=23850, SW=001, uart_out=1, ready=0
# Time=23910, SW=001, uart_out=1, ready=1
# Time=23950, SW=001, uart_out=0, ready=0
# Time=24130, SW=001, uart_out=1, ready=0
# Time=24250, SW=001, uart_out=0, ready=0
# Time=24310, SW=001, uart_out=1, ready=0
# Time=24370, SW=001, uart_out=0, ready=0
# Time=24490, SW=001, uart_out=1, ready=0
# Time=24550, SW=001, uart_out=1, ready=1
# Time=24590, SW=001, uart_out=0, ready=0
# Time=24710, SW=001, uart_out=1, ready=0
# Time=24770, SW=001, uart_out=0, ready=0
# Time=24950, SW=001, uart_out=1, ready=0
# Time=25010, SW=001, uart_out=0, ready=0
# Time=25130, SW=001, uart_out=1, ready=0
# Time=25190, SW=001, uart_out=1, ready=1
# Time=25230, SW=001, uart_out=0, ready=0
# Time=25410, SW=001, uart_out=1, ready=0
# Time=25530, SW=001, uart_out=0, ready=0
# Time=25650, SW=001, uart_out=1, ready=0
# Time=25710, SW=001, uart_out=0, ready=0
# Time=25770, SW=001, uart_out=1, ready=0
# Time=25830, SW=001, uart_out=1, ready=1
# Time=25870, SW=001, uart_out=0, ready=0
# Time=25990, SW=001, uart_out=1, ready=0
# Time=26050, SW=001, uart_out=0, ready=0
# Time=26230, SW=001, uart_out=1, ready=0
# Time=26290, SW=001, uart_out=0, ready=0
# Time=26410, SW=001, uart_out=1, ready=0
# Time=26470, SW=001, uart_out=1, ready=1
# Time=26510, SW=001, uart_out=0, ready=0
# Time=26630, SW=001, uart_out=1, ready=0
# Time=26690, SW=001, uart_out=0, ready=0
# Time=26750, SW=001, uart_out=1, ready=0
# Time=26930, SW=001, uart_out=0, ready=0
# Time=27050, SW=001, uart_out=1, ready=0
# Time=27110, SW=001, uart_out=1, ready=1
# Time=27150, SW=001, uart_out=0, ready=0
# Time=27210, SW=001, uart_out=1, ready=0
# Time=27270, SW=001, uart_out=0, ready=0
# Time=27450, SW=001, uart_out=1, ready=0
# Time=27570, SW=001, uart_out=0, ready=0
# Time=27690, SW=001, uart_out=1, ready=0
# Time=27750, SW=001, uart_out=1, ready=1
# Time=27790, SW=001, uart_out=0, ready=0
# Time=27910, SW=001, uart_out=1, ready=0
# Time=28090, SW=001, uart_out=0, ready=0
# Time=28150, SW=001, uart_out=1, ready=0
# Time=28210, SW=001, uart_out=0, ready=0
# Time=28330, SW=001, uart_out=1, ready=0
# Time=28390, SW=001, uart_out=1, ready=1
# Time=28430, SW=001, uart_out=0, ready=0
# Time=28730, SW=001, uart_out=1, ready=0
# Time=28850, SW=001, uart_out=0, ready=0
# Time=28970, SW=001, uart_out=1, ready=0
# Time=29030, SW=001, uart_out=1, ready=1
# Time=29070, SW=001, uart_out=0, ready=0
# Time=29250, SW=001, uart_out=1, ready=0
# Time=29370, SW=001, uart_out=0, ready=0
# Time=29430, SW=001, uart_out=1, ready=0
# Time=29490, SW=001, uart_out=0, ready=0
# Time=29610, SW=001, uart_out=1, ready=0
# Time=29670, SW=001, uart_out=1, ready=1
# Time=29710, SW=001, uart_out=0, ready=0
# Time=29830, SW=001, uart_out=1, ready=0
# Time=29890, SW=001, uart_out=0, ready=0
# Time=30070, SW=001, uart_out=1, ready=0
# Time=30130, SW=001, uart_out=0, ready=0
# Time=30250, SW=001, uart_out=1, ready=0
# Time=30310, SW=001, uart_out=1, ready=1
# Time=30350, SW=001, uart_out=0, ready=0
# Time=30470, SW=001, uart_out=1, ready=0
# Time=30530, SW=001, uart_out=0, ready=0
# Time=30650, SW=001, uart_out=1, ready=0
# Time=30710, SW=001, uart_out=0, ready=0
# Time=30770, SW=001, uart_out=1, ready=0
# Time=30830, SW=001, uart_out=0, ready=0
# Time=30890, SW=001, uart_out=1, ready=0
# Time=30950, SW=001, uart_out=1, ready=1
# Time=30990, SW=001, uart_out=0, ready=0
# Time=31110, SW=001, uart_out=1, ready=0
# Time=31170, SW=001, uart_out=0, ready=0
# Time=31350, SW=001, uart_out=1, ready=0
# Time=31410, SW=001, uart_out=0, ready=0
# Time=31530, SW=001, uart_out=1, ready=0
# Time=31590, SW=001, uart_out=1, ready=1
# Time=31630, SW=001, uart_out=0, ready=0
# Time=31750, SW=001, uart_out=1, ready=0
# Time=31810, SW=001, uart_out=0, ready=0
# Time=31870, SW=001, uart_out=1, ready=0
# Time=32050, SW=001, uart_out=0, ready=0
# Time=32170, SW=001, uart_out=1, ready=0
# Time=32230, SW=001, uart_out=1, ready=1
# Time=32270, SW=001, uart_out=0, ready=0
# Time=32330, SW=001, uart_out=1, ready=0
# Time=32390, SW=001, uart_out=0, ready=0
# Time=32570, SW=001, uart_out=1, ready=0
# Time=32690, SW=001, uart_out=0, ready=0
# Time=32810, SW=001, uart_out=1, ready=0
# Time=32870, SW=001, uart_out=1, ready=1
# Time=32910, SW=001, uart_out=0, ready=0
# Time=33030, SW=001, uart_out=1, ready=0
# Time=33210, SW=001, uart_out=0, ready=0
# Time=33270, SW=001, uart_out=1, ready=0
# Time=33330, SW=001, uart_out=0, ready=0
# Time=33450, SW=001, uart_out=1, ready=0
# Time=33510, SW=001, uart_out=1, ready=1
# Time=33550, SW=001, uart_out=0, ready=0
# Time=33850, SW=001, uart_out=1, ready=0
# Time=33970, SW=001, uart_out=0, ready=0
# Time=34090, SW=001, uart_out=1, ready=0
# Time=34150, SW=001, uart_out=1, ready=1
# Time=34190, SW=001, uart_out=0, ready=0
# Time=34250, SW=001, uart_out=1, ready=0
# Time=34310, SW=001, uart_out=0, ready=0
# Time=34370, SW=001, uart_out=1, ready=0
# Time=34670, SW=001, uart_out=0, ready=0
# Time=34730, SW=001, uart_out=1, ready=0
# Time=34790, SW=001, uart_out=1, ready=1
# Time=40060, SW=010, uart_out=1, ready=1
# Time=40110, SW=010, uart_out=0, ready=0
# Time=40170, SW=010, uart_out=1, ready=0
# Time=40290, SW=010, uart_out=0, ready=0
# Time=40350, SW=010, uart_out=1, ready=0
# Time=40590, SW=010, uart_out=0, ready=0
# Time=40650, SW=010, uart_out=1, ready=0
# Time=40710, SW=010, uart_out=1, ready=1
# Time=40750, SW=010, uart_out=0, ready=0
# Time=40870, SW=010, uart_out=1, ready=0
# Time=40930, SW=010, uart_out=0, ready=0
# Time=41110, SW=010, uart_out=1, ready=0
# Time=41170, SW=010, uart_out=0, ready=0
# Time=41290, SW=010, uart_out=1, ready=0
# Time=41350, SW=010, uart_out=1, ready=1
# Time=41390, SW=010, uart_out=0, ready=0
# Time=41570, SW=010, uart_out=1, ready=0
# Time=41630, SW=010, uart_out=0, ready=0
# Time=41690, SW=010, uart_out=1, ready=0
# Time=41750, SW=010, uart_out=0, ready=0
# Time=41810, SW=010, uart_out=1, ready=0
# Time=41870, SW=010, uart_out=0, ready=0
# Time=41930, SW=010, uart_out=1, ready=0
# Time=41990, SW=010, uart_out=1, ready=1
# Time=42030, SW=010, uart_out=0, ready=0
# Time=42150, SW=010, uart_out=1, ready=0
# Time=42210, SW=010, uart_out=0, ready=0
# Time=42390, SW=010, uart_out=1, ready=0
# Time=42450, SW=010, uart_out=0, ready=0
# Time=42570, SW=010, uart_out=1, ready=0
# Time=42630, SW=010, uart_out=1, ready=1
# Time=42670, SW=010, uart_out=0, ready=0
# Time=42790, SW=010, uart_out=1, ready=0
# Time=42850, SW=010, uart_out=0, ready=0
# Time=42910, SW=010, uart_out=1, ready=0
# Time=43090, SW=010, uart_out=0, ready=0
# Time=43210, SW=010, uart_out=1, ready=0
# Time=43270, SW=010, uart_out=1, ready=1
# Time=43310, SW=010, uart_out=0, ready=0
# Time=43370, SW=010, uart_out=1, ready=0
# Time=43430, SW=010, uart_out=0, ready=0
# Time=43610, SW=010, uart_out=1, ready=0
# Time=43730, SW=010, uart_out=0, ready=0
# Time=43850, SW=010, uart_out=1, ready=0
# Time=43910, SW=010, uart_out=1, ready=1
# Time=43950, SW=010, uart_out=0, ready=0
# Time=44130, SW=010, uart_out=1, ready=0
# Time=44250, SW=010, uart_out=0, ready=0
# Time=44310, SW=010, uart_out=1, ready=0
# Time=44370, SW=010, uart_out=0, ready=0
# Time=44490, SW=010, uart_out=1, ready=0
# Time=44550, SW=010, uart_out=1, ready=1
# Time=44590, SW=010, uart_out=0, ready=0
# Time=44710, SW=010, uart_out=1, ready=0
# Time=44770, SW=010, uart_out=0, ready=0
# Time=44950, SW=010, uart_out=1, ready=0
# Time=45010, SW=010, uart_out=0, ready=0
# Time=45130, SW=010, uart_out=1, ready=0
# Time=45190, SW=010, uart_out=1, ready=1
# Time=45230, SW=010, uart_out=0, ready=0
# Time=45410, SW=010, uart_out=1, ready=0
# Time=45530, SW=010, uart_out=0, ready=0
# Time=45650, SW=010, uart_out=1, ready=0
# Time=45710, SW=010, uart_out=0, ready=0
# Time=45770, SW=010, uart_out=1, ready=0
# Time=45830, SW=010, uart_out=1, ready=1
# Time=45870, SW=010, uart_out=0, ready=0
# Time=45990, SW=010, uart_out=1, ready=0
# Time=46050, SW=010, uart_out=0, ready=0
# Time=46230, SW=010, uart_out=1, ready=0
# Time=46290, SW=010, uart_out=0, ready=0
# Time=46410, SW=010, uart_out=1, ready=0
# Time=46470, SW=010, uart_out=1, ready=1
# Time=46510, SW=010, uart_out=0, ready=0
# Time=46630, SW=010, uart_out=1, ready=0
# Time=46690, SW=010, uart_out=0, ready=0
# Time=46750, SW=010, uart_out=1, ready=0
# Time=46930, SW=010, uart_out=0, ready=0
# Time=47050, SW=010, uart_out=1, ready=0
# Time=47110, SW=010, uart_out=1, ready=1
# Time=47150, SW=010, uart_out=0, ready=0
# Time=47210, SW=010, uart_out=1, ready=0
# Time=47270, SW=010, uart_out=0, ready=0
# Time=47450, SW=010, uart_out=1, ready=0
# Time=47570, SW=010, uart_out=0, ready=0
# Time=47690, SW=010, uart_out=1, ready=0
# Time=47750, SW=010, uart_out=1, ready=1
# Time=47790, SW=010, uart_out=0, ready=0
# Time=47910, SW=010, uart_out=1, ready=0
# Time=48090, SW=010, uart_out=0, ready=0
# Time=48150, SW=010, uart_out=1, ready=0
# Time=48210, SW=010, uart_out=0, ready=0
# Time=48330, SW=010, uart_out=1, ready=0
# Time=48390, SW=010, uart_out=1, ready=1
# Time=48430, SW=010, uart_out=0, ready=0
# Time=48730, SW=010, uart_out=1, ready=0
# Time=48850, SW=010, uart_out=0, ready=0
# Time=48970, SW=010, uart_out=1, ready=0
# Time=49030, SW=010, uart_out=1, ready=1
# Time=49070, SW=010, uart_out=0, ready=0
# Time=49250, SW=010, uart_out=1, ready=0
# Time=49370, SW=010, uart_out=0, ready=0
# Time=49430, SW=010, uart_out=1, ready=0
# Time=49490, SW=010, uart_out=0, ready=0
# Time=49610, SW=010, uart_out=1, ready=0
# Time=49670, SW=010, uart_out=1, ready=1
# Time=49710, SW=010, uart_out=0, ready=0
# Time=49830, SW=010, uart_out=1, ready=0
# Time=49890, SW=010, uart_out=0, ready=0
# Time=50070, SW=010, uart_out=1, ready=0
# Time=50130, SW=010, uart_out=0, ready=0
# Time=50250, SW=010, uart_out=1, ready=0
# Time=50310, SW=010, uart_out=1, ready=1
# Time=50350, SW=010, uart_out=0, ready=0
# Time=50470, SW=010, uart_out=1, ready=0
# Time=50530, SW=010, uart_out=0, ready=0
# Time=50650, SW=010, uart_out=1, ready=0
# Time=50710, SW=010, uart_out=0, ready=0
# Time=50770, SW=010, uart_out=1, ready=0
# Time=50830, SW=010, uart_out=0, ready=0
# Time=50890, SW=010, uart_out=1, ready=0
# Time=50950, SW=010, uart_out=1, ready=1
# Time=50990, SW=010, uart_out=0, ready=0
# Time=51110, SW=010, uart_out=1, ready=0
# Time=51170, SW=010, uart_out=0, ready=0
# Time=51350, SW=010, uart_out=1, ready=0
# Time=51410, SW=010, uart_out=0, ready=0
# Time=51530, SW=010, uart_out=1, ready=0
# Time=51590, SW=010, uart_out=1, ready=1
# Time=51630, SW=010, uart_out=0, ready=0
# Time=51750, SW=010, uart_out=1, ready=0
# Time=51810, SW=010, uart_out=0, ready=0
# Time=51870, SW=010, uart_out=1, ready=0
# Time=52050, SW=010, uart_out=0, ready=0
# Time=52170, SW=010, uart_out=1, ready=0
# Time=52230, SW=010, uart_out=1, ready=1
# Time=52270, SW=010, uart_out=0, ready=0
# Time=52570, SW=010, uart_out=1, ready=0
# Time=52690, SW=010, uart_out=0, ready=0
# Time=52810, SW=010, uart_out=1, ready=0
# Time=52870, SW=010, uart_out=1, ready=1
# Time=52910, SW=010, uart_out=0, ready=0
# Time=53030, SW=010, uart_out=1, ready=0
# Time=53210, SW=010, uart_out=0, ready=0
# Time=53270, SW=010, uart_out=1, ready=0
# Time=53330, SW=010, uart_out=0, ready=0
# Time=53450, SW=010, uart_out=1, ready=0
# Time=53510, SW=010, uart_out=1, ready=1
# Time=53550, SW=010, uart_out=0, ready=0
# Time=53850, SW=010, uart_out=1, ready=0
# Time=53970, SW=010, uart_out=0, ready=0
# Time=54090, SW=010, uart_out=1, ready=0
# Time=54150, SW=010, uart_out=1, ready=1
# Time=54190, SW=010, uart_out=0, ready=0
# Time=54250, SW=010, uart_out=1, ready=0
# Time=54310, SW=010, uart_out=0, ready=0
# Time=54370, SW=010, uart_out=1, ready=0
# Time=54670, SW=010, uart_out=0, ready=0
# Time=54730, SW=010, uart_out=1, ready=0
# Time=54790, SW=010, uart_out=1, ready=1
# Time=60060, SW=100, uart_out=1, ready=1
# Time=60110, SW=100, uart_out=0, ready=0
# Time=60170, SW=100, uart_out=1, ready=0
# Time=60290, SW=100, uart_out=0, ready=0
# Time=60350, SW=100, uart_out=1, ready=0
# Time=60590, SW=100, uart_out=0, ready=0
# Time=60650, SW=100, uart_out=1, ready=0
# Time=60710, SW=100, uart_out=1, ready=1
# Time=60750, SW=100, uart_out=0, ready=0
# Time=60870, SW=100, uart_out=1, ready=0
# Time=60930, SW=100, uart_out=0, ready=0
# Time=61110, SW=100, uart_out=1, ready=0
# Time=61170, SW=100, uart_out=0, ready=0
# Time=61290, SW=100, uart_out=1, ready=0
# Time=61350, SW=100, uart_out=1, ready=1
# Time=61390, SW=100, uart_out=0, ready=0
# Time=61570, SW=100, uart_out=1, ready=0
# Time=61630, SW=100, uart_out=0, ready=0
# Time=61690, SW=100, uart_out=1, ready=0
# Time=61750, SW=100, uart_out=0, ready=0
# Time=61810, SW=100, uart_out=1, ready=0
# Time=61870, SW=100, uart_out=0, ready=0
# Time=61930, SW=100, uart_out=1, ready=0
# Time=61990, SW=100, uart_out=1, ready=1
# Time=62030, SW=100, uart_out=0, ready=0
# Time=62150, SW=100, uart_out=1, ready=0
# Time=62210, SW=100, uart_out=0, ready=0
# Time=62390, SW=100, uart_out=1, ready=0
# Time=62450, SW=100, uart_out=0, ready=0
# Time=62570, SW=100, uart_out=1, ready=0
# Time=62630, SW=100, uart_out=1, ready=1
# Time=62670, SW=100, uart_out=0, ready=0
# Time=62790, SW=100, uart_out=1, ready=0
# Time=62850, SW=100, uart_out=0, ready=0
# Time=62910, SW=100, uart_out=1, ready=0
# Time=63090, SW=100, uart_out=0, ready=0
# Time=63210, SW=100, uart_out=1, ready=0
# Time=63270, SW=100, uart_out=1, ready=1
# Time=63310, SW=100, uart_out=0, ready=0
# Time=63370, SW=100, uart_out=1, ready=0
# Time=63430, SW=100, uart_out=0, ready=0
# Time=63610, SW=100, uart_out=1, ready=0
# Time=63730, SW=100, uart_out=0, ready=0
# Time=63850, SW=100, uart_out=1, ready=0
# Time=63910, SW=100, uart_out=1, ready=1
# Time=63950, SW=100, uart_out=0, ready=0
# Time=64130, SW=100, uart_out=1, ready=0
# Time=64250, SW=100, uart_out=0, ready=0
# Time=64310, SW=100, uart_out=1, ready=0
# Time=64370, SW=100, uart_out=0, ready=0
# Time=64490, SW=100, uart_out=1, ready=0
# Time=64550, SW=100, uart_out=1, ready=1
# Time=64590, SW=100, uart_out=0, ready=0
# Time=64710, SW=100, uart_out=1, ready=0
# Time=64770, SW=100, uart_out=0, ready=0
# Time=64950, SW=100, uart_out=1, ready=0
# Time=65010, SW=100, uart_out=0, ready=0
# Time=65130, SW=100, uart_out=1, ready=0
# Time=65190, SW=100, uart_out=1, ready=1
# Time=65230, SW=100, uart_out=0, ready=0
# Time=65410, SW=100, uart_out=1, ready=0
# Time=65530, SW=100, uart_out=0, ready=0
# Time=65650, SW=100, uart_out=1, ready=0
# Time=65710, SW=100, uart_out=0, ready=0
# Time=65770, SW=100, uart_out=1, ready=0
# Time=65830, SW=100, uart_out=1, ready=1
# Time=65870, SW=100, uart_out=0, ready=0
# Time=65990, SW=100, uart_out=1, ready=0
# Time=66050, SW=100, uart_out=0, ready=0
# Time=66230, SW=100, uart_out=1, ready=0
# Time=66290, SW=100, uart_out=0, ready=0
# Time=66410, SW=100, uart_out=1, ready=0
# Time=66470, SW=100, uart_out=1, ready=1
# Time=66510, SW=100, uart_out=0, ready=0
# Time=66630, SW=100, uart_out=1, ready=0
# Time=66690, SW=100, uart_out=0, ready=0
# Time=66750, SW=100, uart_out=1, ready=0
# Time=66930, SW=100, uart_out=0, ready=0
# Time=67050, SW=100, uart_out=1, ready=0
# Time=67110, SW=100, uart_out=1, ready=1
# Time=67150, SW=100, uart_out=0, ready=0
# Time=67450, SW=100, uart_out=1, ready=0
# Time=67570, SW=100, uart_out=0, ready=0
# Time=67690, SW=100, uart_out=1, ready=0
# Time=67750, SW=100, uart_out=1, ready=1
